{
  "verification_key" : "c108d0de-ed85-4f25-b3af-b9bf095bec43",
  "version" : "1.0",
  "type" : "web",
  "last_update" : "2013-11-09 22:06:21+0000",
  "permissions": [
  	"geolocation"
  ],
  "created_by": "Ole Bjørn Michelsen"
}
